easy geom recipes – Easy Geom Recipes
…
Step 1: computation

compute_group_lm_fitted<- function(data, scales){
  model<-lm(formula= y ~ x, data = data)
  data %>% 
    mutate(y=model$fitted.values)
}

# test out the function
penguins %>%
  # rename to explicitly state the x and y inputs
  rename(x = bill_depth_mm, y = bill_length_mm)%>%
  compute_group_lm_fitted()

# A tibble: 333 × 8
   species island        y     x flipper_length_mm body_mass_g sex     year
   <fct>   <fct>     <dbl> <dbl>             <int>       <int> <fct>  <int>
 1 Adelie  Torgersen  43.0  18.7               181        3750 male    2007
 2 Adelie  Torgersen  43.8  17.4               186        3800 female  2007
 3 Adelie  Torgersen  43.5  18                 195        3250 female  2007
 4 Adelie  Torgersen  42.6  19.3               193        3450 female  2007
 5 Adelie  Torgersen  41.8  20.6               190        3650 male    2007
 6 Adelie  Torgersen  43.6  17.8               181        3625 female  2007
 7 Adelie  Torgersen  42.4  19.6               195        4675 male    2007
 8 Adelie  Torgersen  43.7  17.6               182        3200 female  2007
 9 Adelie  Torgersen  41.4  21.2               191        3800 male    2007
10 Adelie  Torgersen  41.5  21.1               198        4400 male    2007
# ℹ 323 more rows
…
